- input exel, tag 1: content, tag 2 phone in column 2 ok
- allow select file on phone, save path ok
- show list ok
- show content ok
- check all
- check all viettel, vina, mobil
- send process

---------------------------------------------------
kiem tra path, new ko co hien "select file" ok
			- chon file - path ok
new path: load data thanh 2 tab: content va list user
- Content: cho xem truoc data, ko cho sua ok
- list user:  ok
cho chon theo nha mang, 
chon het, 
chon tung cai
- chon xong co nut Send-> gui message.
- Gui: 1 phut 1 message, hien dialog sending: nguoi dang gui , nguoi ke tiep, (1/30), nut cancel

---------------------------------------------------
